[
  {
    "dialogue_text": "Hello there ! ",
    "npc": 1,
    "dialogue_id": 0,
    "parent_id": -1,
    "map": 0,
    "quest_achieved": false,
    "child_dialogues": [
      1
    ]
  },
  {
    "dialogue_text": "This is dialogue test!",
    "npc": 1,
    "dialogue_id": 1,
    "parent_id": 0,
    "map": 0,
    "quest_achieved": false,
    "child_dialogues": [
      2,
      3
    ]
  },
  {
    "dialogue_text": "Test1",
    "npc": 1,
    "dialogue_id": 2,
    "parent_id": 1,
    "map": 0,
    "quest_achieved": false,
    "child_dialogues": [
      4
    ]
  },
  {
    "dialogue_text": "Test2",
    "npc": 1,
    "dialogue_id": 3,
    "parent_id": 1,
    "map": 0,
    "quest_achieved": false,
    "child_dialogues": []
  },
  {
    "dialogue_text": "test3 ----",
    "npc": 1,
    "dialogue_id": 4,
    "parent_id": 2,
    "map": 0,
    "quest_achieved": false,
    "child_dialogues": []
  }
]